\relax 
\@writefile{lof}{\contentsline {figure}{\numberline {1}{\ignorespaces A snapshot of our game. The black solid line represent walls. The gray line with direction represents the suggested route. The circles represent the cars(agent). The lines attached to nodes represent sensors and the visual extent. \relax }}{1}}
\providecommand*\caption@xref[2]{\@setref\relax\@undefined{#1}}
\newlabel{fig:game}{{1}{1}}
\@writefile{toc}{\contentsline {section}{\numberline {1}Problem description}{1}}
\newlabel{sec:problem}{{1}{1}}
\@writefile{toc}{\contentsline {section}{\numberline {2}Background}{2}}
\newlabel{sec:background}{{2}{2}}
\citation{mnih2013playing}
\citation{watkins1992q}
\citation{lin1993reinforcement}
\citation{tan1993multi}
\citation{karpathy2014convnetjs}
\@writefile{toc}{\contentsline {section}{\numberline {3}Prior work}{3}}
\newlabel{sec:prior}{{3}{3}}
\@writefile{lof}{\contentsline {figure}{\numberline {2}{\ignorespaces The difference of reward function between using 90 degree corner and 45 degree corner. \relax }}{4}}
\newlabel{fig:corner}{{2}{4}}
\@writefile{toc}{\contentsline {section}{\numberline {4}Implementation details}{4}}
\newlabel{sec:detail}{{4}{4}}
\citation{bengio2009curriculum}
\@writefile{lof}{\contentsline {figure}{\numberline {3}{\ignorespaces The architecture of multi-layer perceptron\relax }}{5}}
\newlabel{fig:net}{{3}{5}}
\@writefile{lof}{\contentsline {figure}{\numberline {4}{\ignorespaces A snapshot of sensory information from a random agent\relax }}{6}}
\newlabel{fig:input}{{4}{6}}
\@writefile{toc}{\contentsline {section}{\numberline {5}Demo}{6}}
\@writefile{toc}{\contentsline {subsection}{\numberline {5.1}Model specs}{6}}
\@writefile{toc}{\contentsline {subsection}{\numberline {5.2}Live visualization}{6}}
\@writefile{toc}{\contentsline {subsection}{\numberline {5.3}Control options}{6}}
\@writefile{toc}{\contentsline {subsection}{\numberline {5.4}Pre-trained models}{6}}
\bibstyle{plain}
\bibdata{ref}
\bibcite{karpathy2014convnetjs}{1}
\bibcite{bengio2009curriculum}{2}
\bibcite{lin1993reinforcement}{3}
\bibcite{mnih2013playing}{4}
\bibcite{tan1993multi}{5}
\bibcite{watkins1992q}{6}
\@writefile{toc}{\contentsline {section}{\numberline {6}Future work}{7}}
\@writefile{toc}{\contentsline {section}{\numberline {7}Conclusions}{7}}
\@writefile{lof}{\contentsline {figure}{\numberline {5}{\ignorespaces A much harder route configuration\relax }}{8}}
\newlabel{fig:hard}{{5}{8}}
\@writefile{lof}{\contentsline {figure}{\numberline {6}{\ignorespaces A much harder route configuration\relax }}{8}}
\newlabel{fig:reward2}{{6}{8}}
\@writefile{toc}{\contentsline {section}{\numberline {A}More experiments}{8}}
